ISSS608-VAA - Take Home Exercise 02
…
ℹ Use `spec()` to retrieve the full column specification for this data.
ℹ Specify the column types or set `show_col_types = FALSE` to quiet this message.

Data Preparation

Delete columns of “SZ”,“FA” and “Time” and keep PA, AG, Sex and Pop.

pop_data %>%
  select(PA,AG,Sex,Pop,)

# A tibble: 75,696 × 4
   PA         AG     Sex       Pop
   <chr>      <chr>  <chr>   <dbl>
 1 Ang Mo Kio 0_to_4 Males       0
 2 Ang Mo Kio 0_to_4 Males      10
 3 Ang Mo Kio 0_to_4 Males      20
 4 Ang Mo Kio 0_to_4 Males      60
 5 Ang Mo Kio 0_to_4 Males      10
 6 Ang Mo Kio 0_to_4 Males       0
 7 Ang Mo Kio 0_to_4 Females     0
 8 Ang Mo Kio 0_to_4 Females     0
 9 Ang Mo Kio 0_to_4 Females    20
10 Ang Mo Kio 0_to_4 Females    50
# … with 75,686 more rows
…
